module gitlab.com/pavr1/edu-grades

go 1.20

require (
	github.com/cpuguy83/go-md2man/v2 v2.0.2 // indirect
	github.com/dgrijalva/jwt-go v3.2.0+incompatible // indirect
	github.com/golang/snappy v0.0.1 // indirect
	github.com/google/uuid v1.4.0 // indirect
	github.com/gorilla/mux v1.8.1 // indirect
	github.com/klauspost/compress v1.13.6 // indirect
	github.com/montanaflynn/stats v0.0.0-20171201202039-1bf9dbcd8cbe // indirect
	github.com/russross/blackfriday/v2 v2.1.0 // indirect
	github.com/sirupsen/logrus v1.9.3 // indirect
	github.com/urfave/cli/v2 v2.25.7 // indirect
	github.com/xdg-go/pbkdf2 v1.0.0 // indirect
	github.com/xdg-go/scram v1.1.2 // indirect
	github.com/xdg-go/stringprep v1.0.4 // indirect
	github.com/xrash/smetrics v0.0.0-20201216005158-039620a65673 // indirect
	github.com/youmark/pkcs8 v0.0.0-20181117223130-1be2e3e5546d // indirect
	go.mongodb.org/mongo-driver v1.13.0 // indirect
	golang.org/x/crypto v0.0.0-20220622213112-05595931fe9d // indirect
	golang.org/x/sync v0.0.0-20220722155255-886fb9371eb4 // indirect
	golang.org/x/sys v0.0.0-20220722155257-8c9f86f7a55f // indirect
	golang.org/x/text v0.7.0 // indirect
)
